rtl/waves.vcd
$date
	Sat Nov  8 16:00:48 2025
$end
$version
	Icarus Verilog
$end
$timescale
	1s
$end
$scope module hart_tb $end
$var wire 1 ! trap $end
$var wire 1 " valid $end
$var wire 32 # rs2_rdata [31:0] $end
$var wire 5 $ rs2_raddr [4:0] $end
$var wire 32 % rs1_rdata [31:0] $end
$var wire 5 & rs1_raddr [4:0] $end
$var wire 1 ' retire_dmem_wen $end
$var wire 32 ( retire_dmem_wdata [31:0] $end
$var wire 1 ) retire_dmem_ren $end
$var wire 32 * retire_dmem_rdata [31:0] $end
$var wire 4 + retire_dmem_mask [3:0] $end
$var wire 32 , retire_dmem_addr [31:0] $end
$var wire 32 - rd_wdata [31:0] $end
$var wire 5 . rd_waddr [4:0] $end
$var wire 32 / pc [31:0] $end
$var wire 32 0 next_pc [31:0] $end
$var wire 32 1 inst [31:0] $end
$var wire 32 2 imem_raddr [31:0] $end
$var wire 1 3 halt $end
$var wire 1 4 dmem_wen $end
$var wire 32 5 dmem_wdata [31:0] $end
$var wire 1 6 dmem_ren $end
$var wire 4 7 dmem_mask [3:0] $end
$var wire 32 8 dmem_addr [31:0] $end
$var reg 1 9 clk $end
$var reg 32 : dmem_rdata [31:0] $end
$var reg 32 ; imem_rdata [31:0] $end
$var reg 1 < rst $end
$var integer 32 = cycles [31:0] $end
$var integer 32 > num_instructions [31:0] $end
$var integer 32 ? run [31:0] $end
$scope module dut $end
$var wire 32 @ MEM_DATA [31:0] $end
$var wire 1 A flush $end
$var wire 1 9 i_clk $end
$var wire 32 B i_dmem_rdata [31:0] $end
$var wire 32 C i_imem_rdata [31:0] $end
$var wire 1 < i_rst $end
$var wire 32 D o_dmem_addr [31:0] $end
$var wire 4 E o_dmem_mask [3:0] $end
$var wire 1 6 o_dmem_ren $end
$var wire 32 F o_dmem_wdata [31:0] $end
$var wire 1 4 o_dmem_wen $end
$var wire 32 G o_imem_raddr [31:0] $end
$var wire 32 H o_retire_dmem_addr [31:0] $end
$var wire 4 I o_retire_dmem_mask [3:0] $end
$var wire 32 J o_retire_dmem_rdata [31:0] $end
$var wire 1 ) o_retire_dmem_ren $end
$var wire 32 K o_retire_dmem_wdata [31:0] $end
$var wire 1 ' o_retire_dmem_wen $end
$var wire 32 L o_retire_inst [31:0] $end
$var wire 32 M o_retire_next_pc [31:0] $end
$var wire 32 N o_retire_pc [31:0] $end
$var wire 5 O o_retire_rd_waddr [4:0] $end
$var wire 32 P o_retire_rd_wdata [31:0] $end
$var wire 32 Q o_retire_rs1_rdata [31:0] $end
$var wire 32 R o_retire_rs2_rdata [31:0] $end
$var wire 1 ! o_retire_trap $end
$var wire 1 " o_retire_valid $end
$var wire 5 S rf_writeAddress [4:0] $end
$var wire 1 T regWrite $end
$var wire 32 U regData2 [31:0] $end
$var wire 32 V regData1 [31:0] $end
$var wire 5 W o_retire_rs2_raddr [4:0] $end
$var wire 5 X o_retire_rs1_raddr [4:0] $end
$var wire 1 3 o_retire_halt $end
$var wire 32 Y next_PC [31:0] $end
$var wire 4 Z mask [3:0] $end
$var wire 1 [ jalr_C $end
$var wire 1 \ jal_C $end
$var wire 32 ] immediate_val [31:0] $end
$var wire 4 ^ func_val [3:0] $end
$var wire 3 _ func3_val [2:0] $end
$var wire 32 ` current_PC_w [31:0] $end
$var wire 32 a current_PC [31:0] $end
$var wire 1 b byte_hw_unsigned $end
$var wire 1 c branch_taken $end
$var wire 1 d branch_C $end
$var wire 32 e aligned_address [31:0] $end
$var wire 32 f WriteDataReg [31:0] $end
$var wire 32 g WriteDataMem [31:0] $end
$var wire 32 h WB_DATA [31:0] $end
$var wire 32 i PC_plus4 [31:0] $end
$var wire 32 j PC_offset [31:0] $end
$var wire 2 k PC_MUX_SEL [1:0] $end
$var wire 1 l PC_En $end
$var wire 1 m Mux_sel $end
$var wire 32 n Mem_WD [31:0] $end
$var wire 1 o MemWrite_C $end
$var wire 1 p MemRead_C $end
$var wire 32 q JB_PC [31:0] $end
$var wire 1 r IF_ID_En $end
$var wire 2 s Data_sel_C [1:0] $end
$var wire 3 t ALUop_C [2:0] $end
$var wire 32 u ALU_result [31:0] $end
$var wire 32 v ALU_operand2 [31:0] $end
$var wire 32 w ALU_operand1 [31:0] $end
$var parameter 32 x RESET_ADDR $end
$var reg 32 y PC_plus4_flop [31:0] $end
$var reg 32 z flopped_current_PC [31:0] $end
$var reg 32 { reg0_ALU_operand1 [31:0] $end
$var reg 32 | reg0_ALU_operand2 [31:0] $end
$var reg 32 } reg0_ALU_result [31:0] $end
$var reg 3 ~ reg0_ALUop_C [2:0] $end
$var reg 2 !" reg0_Data_sel_C [1:0] $end
$var reg 32 "" reg0_MEM_DATA [31:0] $end
$var reg 1 #" reg0_MemRead_C $end
$var reg 1 $" reg0_MemWrite_C $end
$var reg 32 %" reg0_Mem_WD [31:0] $end
$var reg 7 &" reg0_OP [6:0] $end
$var reg 32 '" reg0_PC_plus4 [31:0] $end
$var reg 32 (" reg0_WriteDataMem [31:0] $end
$var reg 32 )" reg0_aligned_address [31:0] $end
$var reg 1 *" reg0_branch_C $end
$var reg 1 +" reg0_byte_hw_unsigned $end
$var reg 32 ," reg0_curr_instruct [31:0] $end
$var reg 32 -" reg0_current_PC [31:0] $end
$var reg 3 ." reg0_func3_val [2:0] $end
$var reg 4 /" reg0_func_val [3:0] $end
$var reg 32 0" reg0_immediate_val [31:0] $end
$var reg 1 1" reg0_jal_C $end
$var reg 1 2" reg0_jalr_C $end
$var reg 4 3" reg0_mask [3:0] $end
$var reg 32 4" reg0_regData1 [31:0] $end
$var reg 32 5" reg0_regData2 [31:0] $end
$var reg 1 6" reg0_regWrite $end
$var reg 1 7" reg0_retire_valid $end
$var reg 32 8" reg1_ALU_result [31:0] $end
$var reg 2 9" reg1_Data_sel_C [1:0] $end
$var reg 1 :" reg1_MemRead_C $end
$var reg 1 ;" reg1_MemWrite_C $end
$var reg 32 <" reg1_PC_plus4 [31:0] $end
$var reg 32 =" reg1_WriteDataMem [31:0] $end
$var reg 32 >" reg1_aligned_address [31:0] $end
$var reg 1 ?" reg1_byte_hw_unsigned $end
$var reg 32 @" reg1_curr_instruct [31:0] $end
$var reg 32 A" reg1_current_PC [31:0] $end
$var reg 32 B" reg1_immediate_val [31:0] $end
$var reg 1 C" reg1_jal_C $end
$var reg 4 D" reg1_mask [3:0] $end
$var reg 32 E" reg1_regData1 [31:0] $end
$var reg 32 F" reg1_regData2 [31:0] $end
$var reg 1 G" reg1_regWrite $end
$var reg 1 H" reg1_retire_valid $end
$var reg 2 I" reg2_Data_sel_C [1:0] $end
$var reg 1 J" reg2_MemRead_C $end
$var reg 1 K" reg2_MemWrite_C $end
$var reg 32 L" reg2_PC_plus4 [31:0] $end
$var reg 32 M" reg2_curr_instruct [31:0] $end
$var reg 32 N" reg2_current_PC [31:0] $end
$var reg 32 O" reg2_immediate_val [31:0] $end
$var reg 32 P" reg2_regData1 [31:0] $end
$var reg 32 Q" reg2_regData2 [31:0] $end
$var reg 1 R" reg2_regWrite $end
$var reg 1 S" reg2_retire_valid $end
$var reg 32 T" reg3_PC_plus4 [31:0] $end
$var reg 32 U" reg3_curr_instruct [31:0] $end
$var reg 32 V" reg3_current_PC [31:0] $end
$var reg 1 W" reg3_retire_valid $end
$var reg 1 X" rst_reg $end
$scope module dataEXT $end
$var wire 32 Y" i_Rs2Data [31:0] $end
$var wire 4 Z" i_old_mask [3:0] $end
$var wire 1 ?" i_old_unsign $end
$var wire 32 [" o_regData [31:0] $end
$var wire 32 \" o_Memdata [31:0] $end
$var wire 1 b i_unsign $end
$var wire 4 ]" i_mask [3:0] $end
$var wire 32 ^" i_WB [31:0] $end
$upscope $end
$scope module decode_I $end
$var wire 1 9 clk $end
$var wire 32 _" i_currentPC [31:0] $end
$var wire 32 `" i_instruct [31:0] $end
$var wire 32 a" o_Rdata2 [31:0] $end
$var wire 1 < rst $end
$var wire 32 b" o_op2 [31:0] $end
$var wire 32 c" o_op1 [31:0] $end
$var wire 1 [ o_jalr $end
$var wire 1 \ o_jal $end
$var wire 32 d" o_imm [31:0] $end
$var wire 1 d o_branch $end
$var wire 1 T o_RegWrite $end
$var wire 1 o o_MemWrite $end
$var wire 1 p o_MemRead $end
$var wire 2 e" o_Data_sel [1:0] $end
$var wire 3 f" o_ALUop [2:0] $end
$var wire 32 g" i_regData2 [31:0] $end
$var wire 32 h" i_regData1 [31:0] $end
$var wire 3 i" func3 [2:0] $end
$var wire 4 j" func [3:0] $end
$var wire 6 k" OneHotDecode [5:0] $end
$var wire 1 l" ALUmux2 $end
$var wire 1 m" ALUmux1 $end
$scope module OneHot $end
$var wire 7 n" opcode [6:0] $end
$var wire 6 o" i_format [5:0] $end
$var parameter 7 p" B_type $end
$var parameter 7 q" I_type $end
$var parameter 7 r" Jump $end
$var parameter 7 s" JumpR $end
$var parameter 7 t" LUI $end
$var parameter 7 u" Load $end
$var parameter 7 v" R_type $end
$var parameter 7 w" S_type $end
$var parameter 7 x" auipc $end
$upscope $end
$scope module decoder $end
$var wire 1 l" ALUsrc2 $end
$var wire 1 T RegWrite $end
$var wire 7 y" i_opcode [6:0] $end
$var wire 1 [ jalr $end
$var wire 1 \ jal $end
$var wire 1 d branch $end
$var wire 1 o MemWrite $end
$var wire 1 p MemRead $end
$var wire 2 z" Data_sel [1:0] $end
$var wire 1 m" ALUsrc1 $end
$var wire 3 {" ALUOp [2:0] $end
$var parameter 7 |" B_type $end
$var parameter 7 }" I_type $end
$var parameter 7 ~" Jump $end
$var parameter 7 !# JumpR $end
$var parameter 7 "# LUI $end
$var parameter 7 ## Load $end
$var parameter 7 $# R_type $end
$var parameter 7 %# S_type $end
$var parameter 7 &# auipc $end
$upscope $end
$scope module imm_gen $end
$var wire 6 '# i_format [5:0] $end
$var wire 32 (# i_inst [31:0] $end
$var wire 32 )# o_immediate [31:0] $end
$upscope $end
$upscope $end
$scope module execute_I $end
$var wire 4 *# func [3:0] $end
$var wire 3 +# func3 [2:0] $end
$var wire 3 ,# i_ALUOp [2:0] $end
$var wire 1 *" i_branch $end
$var wire 32 -# i_imm [31:0] $end
$var wire 1 1" i_jal $end
$var wire 1 2" i_jalr $end
$var wire 32 .# i_op1 [31:0] $end
$var wire 32 /# i_op2 [31:0] $end
$var wire 32 0# i_pc [31:0] $end
$var wire 1 1# o_unsigned $end
$var wire 1 2# o_sub $end
$var wire 1 3# o_slt $end
$var wire 32 4# o_result [31:0] $end
$var wire 3 5# o_opsel [2:0] $end
$var wire 32 6# o_inc_pc [31:0] $end
$var wire 1 7# o_eq $end
$var wire 1 8# o_arith $end
$var wire 2 9# o_PC_Select [1:0] $end
$scope module ALU $end
$var wire 32 :# and_result [31:0] $end
$var wire 32 ;# i_op1 [31:0] $end
$var wire 32 <# i_op2 [31:0] $end
$var wire 1 =# is_shift $end
$var wire 32 ># or_result [31:0] $end
$var wire 32 ?# signed_op1 [31:0] $end
$var wire 32 @# signed_op2 [31:0] $end
$var wire 32 A# xor_result [31:0] $end
$var wire 1 B# slt_unsigned $end
$var wire 1 C# slt_signed $end
$var wire 32 D# shift_result [31:0] $end
$var wire 1 E# shift_left $end
$var wire 32 F# op2_mux [31:0] $end
$var wire 1 3# o_slt $end
$var wire 32 G# o_result [31:0] $end
$var wire 1 7# o_eq $end
$var wire 1 1# i_unsigned $end
$var wire 1 2# i_sub $end
$var wire 3 H# i_opsel [2:0] $end
$var wire 1 8# i_arith $end
$var wire 32 I# add_sub_result [31:0] $end
$scope module shifter $end
$var wire 1 E# i_left $end
$var wire 5 J# i_shift_amt [4:0] $end
$var wire 32 K# i_value [31:0] $end
$var wire 32 L# o_result [31:0] $end
$var wire 1 8# i_arith $end
$upscope $end
$upscope $end
$scope module ALU_cntrl $end
$var wire 3 M# alu_op [2:0] $end
$var wire 4 N# instruction_bits [3:0] $end
$var wire 1 8# o_arith $end
$var wire 1 2# o_sub $end
$var wire 1 1# o_unsigned $end
$var wire 3 O# sbuj_type [2:0] $end
$var wire 3 P# o_opsel [2:0] $end
$var wire 3 Q# func3 [2:0] $end
$upscope $end
$scope module BRANCH $end
$var wire 1 *" branch $end
$var wire 1 7# eq $end
$var wire 3 R# func3 [2:0] $end
$var wire 1 1" jal $end
$var wire 1 2" jalr $end
$var wire 1 3# slt $end
$var wire 2 S# out [1:0] $end
$upscope $end
$upscope $end
$scope module fetch_inst $end
$var wire 32 T# i_NextPC [31:0] $end
$var wire 1 9 i_clk $end
$var wire 1 < i_rst $end
$var wire 32 U# o_inc_pc [31:0] $end
$var wire 1 r IF_EN $end
$var reg 32 V# o_PC [31:0] $end
$upscope $end
$scope module haz $end
$var wire 1 G" EX_MEM_RegWrite $end
$var wire 5 W# EX_MEM_WriteReg [4:0] $end
$var wire 1 6" ID_EX_RegWrite $end
$var wire 5 X# ID_EX_WriteReg [4:0] $end
$var wire 1 r IF_ID_En $end
$var wire 5 Y# IF_ID_RS1 [4:0] $end
$var wire 5 Z# IF_ID_RS2 [4:0] $end
$var wire 1 m Mux_sel $end
$var wire 1 l PC_En $end
$var wire 1 [# hazard $end
$var wire 1 \# is_jump_or_lui $end
$var wire 7 ]# op_code [6:0] $end
$var wire 1 7" valid_inst $end
$upscope $end
$scope module mask_gen $end
$var wire 32 ^# address [31:0] $end
$var wire 3 _# func3 [2:0] $end
$var wire 1 b o_unsigned $end
$var wire 7 `# opcode [6:0] $end
$var wire 4 a# mask [3:0] $end
$var wire 2 b# lsb [1:0] $end
$var wire 32 c# aligned_address [31:0] $end
$upscope $end
$scope module rf $end
$var wire 1 9 i_clk $end
$var wire 5 d# i_rd_waddr [4:0] $end
$var wire 32 e# i_rd_wdata [31:0] $end
$var wire 1 R" i_rd_wen $end
$var wire 5 f# i_rs1_raddr [4:0] $end
$var wire 5 g# i_rs2_raddr [4:0] $end
$var wire 1 < i_rst $end
$var wire 32 h# o_rs2_rdata [31:0] $end
$var wire 32 i# o_rs1_rdata [31:0] $end
$var parameter 32 j# BYPASS_EN $end
$var integer 32 k# i [31:0] $end
$upscope $end
$scope module writeback $end
$var wire 32 l# i_AluRslt [31:0] $end
$var wire 2 m# i_MUXsel [1:0] $end
$var wire 32 n# i_MemData [31:0] $end
$var wire 32 o# i_PC4 [31:0] $end
$var wire 32 p# i_imm [31:0] $end
$var wire 32 q# o_dataSel [31:0] $end
$upscope $end
$upscope $end
$upscope $end
$enddefinitions $end
$comment Show the parameter values. $end
$dumpall
b1 j#
b10111 &#
b100011 %#
b110011 $#
b11 ##
b110111 "#
b1100111 !#
b1101111 ~"
b10011 }"
b1100011 |"
b10111 x"
b100011 w"
b110011 v"
b11 u"
b110111 t"
b1100111 s"
b1101111 r"
b10011 q"
b1100011 p"
b0 x
$end
#0
$dumpvars
bx q#
bx p#
bx o#
b0 n#
bx m#
bx l#
bx k#
bx i#
bx h#
bx g#
bx f#
bx e#
bx d#
bx00 c#
bx b#
bx a#
bx `#
bx _#
bx ^#
bx ]#
x\#
x[#
bx Z#
bx Y#
bx X#
bx W#
bx V#
bx U#
bx T#
bx S#
bx R#
bx Q#
bx P#
b0 O#
bx N#
bx M#
bx L#
bx K#
bx J#
bx I#
bx H#
bx G#
bx F#
xE#
bx D#
xC#
xB#
bx A#
bx @#
bx ?#
bx >#
x=#
bx <#
bx ;#
bx :#
bx 9#
x8#
x7#
bx 6#
bx 5#
bx 4#
x3#
x2#
x1#
bx 0#
bx /#
bx .#
bx -#
bx ,#
bx +#
bx *#
bx )#
bx (#
bx '#
bx {"
bx z"
bx y"
bx o"
bx n"
xm"
xl"
bx k"
bx j"
bx i"
bx h"
bx g"
bx f"
bx e"
bx d"
bx c"
bx b"
bx a"
bx `"
bx _"
bx ^"
bx ]"
bx \"
bx ["
bx Z"
bx Y"
0X"
xW"
bx V"
bx U"
bx T"
xS"
xR"
bx Q"
bx P"
bx O"
bx N"
bx M"
bx L"
xK"
xJ"
bx I"
xH"
xG"
bx F"
bx E"
bx D"
xC"
bx B"
bx A"
bx @"
x?"
bx >"
bx ="
bx <"
x;"
x:"
bx 9"
bx 8"
x7"
x6"
bx 5"
bx 4"
bx 3"
x2"
x1"
bx 0"
bx /"
bx ."
bx -"
bx ,"
x+"
x*"
bx00 )"
bx ("
bx '"
bx &"
bx %"
x$"
x#"
bx ""
bx !"
bx ~
bx }
bx |
bx {
bx z
bx y
bx w
bx v
bx u
bx t
bx s
xr
bx q
xp
xo
bx n
xm
xl
bx k
bx j
bx i
bx h
bx g
bx f
bx00 e
xd
xc
xb
bx a
bx `
bx _
bx ^
bx ]
x\
x[
bx Z
bx Y
bx X
bx W
bx V
bx U
xT
bx S
bx R
bx Q
bx P
bx O
bx N
bx M
bx L
bx K
b0 J
bx I
bx H
bx G
bx F
bx E
bx00 D
bx C
b0 B
xA
b0 @
bx ?
bx >
bx =
0<
bx ;
b0 :
19
bx00 8
bx 7
x6
bx 5
x4
x3
bx 2
bx 1
bx 0
bx /
bx .
bx -
bx ,
bx +
b0 *
x)
bx (
x'
bx &
bx %
bx $
bx #
x"
0!
$end
#5
0"
1<
09
#10
0T
b0 D#
b0 L#
01#
b0 b#
b0 e
b0 c#
b0 q
0A
b0 w
b0 c"
b0 v
b0 b"
b0 u
b0 4#
b0 G#
b0 ^#
0=#
0E#
0c
b0 k
b0 9#
b0 S#
0l"
b1 k"
b1 o"
b1 '#
b0 -
b0 P
b0 f
b0 ["
b0 e#
b0 V
b0 h"
b0 i#
b0 n
b0 a"
b0 U
b0 g"
b0 h#
b0 5#
b0 H#
b0 P#
b0 g
b0 \"
1l
1r
0\#
b1111 Z
b1111 ]"
b1111 a#
02#
08#
b0 I#
b0 F#
0m
0[#
b0 t
b0 f"
b0 {"
b10 s
b10 e"
b10 z"
b0 ]
b0 d"
b0 )#
b0 &
b0 X
b0 $
b0 W
b0 h
b0 ^"
b0 q#
b0 .
b0 O
b0 S
b0 d#
b0 W#
b0 X#
b0 Q#
03#
b0 J#
b0 :#
b0 >#
b0 A#
0b
b0 ]#
b0 Y#
b0 Z#
b0 f#
b0 g#
0\
0[
0d
0p
0o
0m"
b0 y"
b0 n"
b0 _
b0 i"
b0 ^
b0 j"
b0 0
b0 M
b0 2
b0 G
b0 Y
b0 T#
b0 a
b0 #
b0 R
b0 Q"
b0 %
b0 Q
b0 P"
b0 (
b0 K
b0 ="
0'
0K"
0)
0J"
b0 ,
b0 H
b0 >"
b0 /
b0 N
b0 V"
0W"
03
b0 1
b0 L
b0 U"
0?"
b0 +
b0 I
b0 D"
b0 Z"
b0 T"
b0 o#
b0 O"
b0 p#
b0 8"
b0 l#
b0 ""
b0 I"
b0 m#
0R"
b0 E"
b0 F"
b0 N"
0S"
b0 M"
b0 5
b0 F
b0 ("
04
0;"
b0 9"
06
0:"
0G"
b0 B"
b0 }
0+"
b0 7
b0 E
b0 3"
b0 8
b0 D
b0 )"
b0 L"
0C"
b0 5"
b0 4"
0H"
b0 @"
b0 &"
b0 `#
b0 /"
b0 *#
b0 N#
b0 ~
b0 ,#
b0 M#
b0 %"
b0 Y"
0C#
b0 @#
17#
0B#
b0 |
b0 /#
b0 <#
b0 ?#
b0 {
b0 .#
b0 ;#
b0 K#
0$"
b0 !"
0#"
06"
0*"
02"
01"
b0 ."
b0 +#
b0 R#
b0 _#
b0 j
b0 6#
b0 0"
b0 -#
b0 <"
b0 A"
b0 0#
07"
b0 ,"
b0 `"
b0 (#
b0 -"
b0 _"
b0 '"
b0 y
b0 z
1X"
b100 i
b100 U#
b0 `
b0 V#
b100000 k#
19
#15
b0 >
b1 ?
b0 =
0<
09
#20
b100 0
b100 M
b100 2
b100 G
b100 Y
b100 T#
0X"
b10 !"
b1111 7
b1111 E
b1111 3"
b10000000000000000010000010011 ;
b10000000000000000010000010011 C
b1 =
19
#25
09
#30
1T
b100000000 v
b100000000 b"
b10 k"
b10 o"
b10 '#
b100000000 ]
b100000000 d"
b100000000 )#
1l"
b1 t
b1 f"
b1 {"
b1000 0
b1000 M
b1000 2
b1000 G
b1000 Y
b1000 T#
b10011 ]#
b10011 y"
b10011 n"
b100 a
b111110000000000000011101111 ;
b111110000000000000011101111 C
b1111 +
b1111 I
b1111 D"
b1111 Z"
b10 9"
17"
b10000000000000000010000010011 ,"
b10000000000000000010000010011 `"
b10000000000000000010000010011 (#
b100 '"
b100 y
b1000 i
b1000 U#
b100 `
b100 V#
b10 =
19
#35
09
#40
b0 s
b0 e"
b0 z"
b100000 k"
b100000 o"
b100000 '#
0l"
b1100 0
b1100 M
b1100 2
b1100 G
b1100 Y
b1100 T#
b101 t
b101 f"
b101 {"
b0 v
b0 b"
b100000000 e
b100000000 c#
b100000000 q
1\#
b1111100 ]
b1111100 d"
b1111100 )#
b100000000 u
b100000000 4#
b100000000 G#
b100000000 ^#
b1000 a
b1101111 ]#
b11100 Z#
b11100 g#
1\
b1101111 y"
b1101111 n"
b1000 X#
13#
b100000000 >#
b100000000 A#
b100000000 I#
b100000000 F#
b1100 i
b1100 U#
b1000 `
b1000 V#
b1000 y
b100 z
b111110000000000000011101111 ,"
b111110000000000000011101111 `"
b111110000000000000011101111 (#
b100 -"
b100 _"
b1000 '"
1H"
b10000000000000000010000010011 @"
b10011 &"
b10011 `#
b1 ~
b1 ,#
b1 M#
1C#
b100000000 @#
07#
1B#
b100000000 |
b100000000 /#
b100000000 <#
16"
b100000000 j
b100000000 6#
b100000000 0"
b100000000 -#
b100 <"
b10 I"
b10 m#
b10010001101000001001010110111 ;
b10010001101000001001010110111 C
b11 =
19
#45
09
#50
b100 t
b100 f"
b100 {"
b10000 k"
b10000 o"
b10000 '#
1l
1r
b1 s
b1 e"
b1 z"
0m
0[#
b10010001101000001000000000000 ]
b10010001101000001000000000000 d"
b10010001101000001000000000000 )#
b0 e
b0 c#
b10000000 q
b10000000 0
b10000000 M
b10000000 2
b10000000 G
b10000000 Y
b10000000 T#
b0 u
b0 4#
b0 G#
b0 ^#
1A
1\#
b1000 W#
b1 X#
03#
b0 >#
b0 A#
b0 I#
b0 F#
1c
b11 k
b11 9#
b11 S#
b110111 ]#
b1000 Y#
b11 Z#
b1000 f#
b11 g#
0\
b110111 y"
b110111 n"
b1 _
b1 i"
b1 ^
b1 j"
b1100 a
b100011010000101000001010010011 ;
b100011010000101000001010010011 C
1S"
b10000000000000000010000010011 M"
1G"
b100000000 B"
b100000000 }
b100000000 8
b100000000 D
b100000000 )"
b100 L"
b111110000000000000011101111 @"
b1101111 &"
b1101111 `#
b101 ~
b101 ,#
b101 M#
0C#
b0 @#
17#
0B#
b0 |
b0 /#
b0 <#
b0 !"
11"
b1111100 0"
b1111100 -#
b1000 <"
b10000000 j
b10000000 6#
b100 A"
b100 0#
b10010001101000001001010110111 ,"
b10010001101000001001010110111 `"
b10010001101000001001010110111 (#
b1000 -"
b1000 _"
b1100 '"
b1100 y
b1000 z
b10000 i
b10000 U#
b1100 `
b1100 V#
b100 =
19
#55
09
#60
b0 t
b0 f"
b0 {"
b1 k"
b1 o"
b1 '#
b10 s
b10 e"
b10 z"
b0 ]
b0 d"
b0 )#
b10000100 0
b10000100 M
b10000100 2
b10000100 G
b10000100 Y
b10000100 T#
b100000000 -
b100000000 P
b100000000 f
b100000000 ["
b100000000 e#
0\#
0T
b100000000 h
b100000000 ^"
b100000000 q#
0A
b1000 .
b1000 O
b1000 S
b1000 d#
b10000000 a
b0 ]#
b0 Y#
b0 Z#
b0 f#
b0 g#
b0 y"
b0 n"
b0 _
b0 i"
b0 ^
b0 j"
b0 X#
0c
b0 k
b0 9#
b0 S#
b0 q
b1 W#
1"
b10000100 i
b10000100 U#
b10000000 `
b10000000 V#
b10000 y
b1100 z
07"
b0 ,"
b0 `"
b0 (#
b0 -"
b0 _"
b0 '"
0H"
b0 @"
b0 &"
b0 `#
b0 ~
b0 ,#
b0 M#
06"
01"
b0 0"
b0 -#
b0 <"
b0 j
b0 6#
b0 A"
b0 0#
b100 N"
b111110000000000000011101111 M"
b0 9"
b1111100 B"
b0 }
b0 8
b0 D
b0 )"
b1000 L"
1C"
b100000000 ,
b100000000 H
b100000000 >"
1W"
b10000000000000000010000010011 1
b10000000000000000010000010011 L
b10000000000000000010000010011 U"
b100 T"
b100 o#
b100000000 O"
b100000000 p#
b100000000 8"
b100000000 l#
1R"
b1010010011 ;
b1010010011 C
b101 =
19
#65
09
#70
1T
b10 k"
b10 o"
b10 '#
1l"
b1 t
b1 f"
b1 {"
b10001000 0
b10001000 M
b10001000 2
b10001000 G
b10001000 Y
b10001000 T#
b1 .
b1 O
b1 S
b1 d#
b1000 -
b1000 P
b1000 f
b1000 ["
b1000 e#
b11100 $
b11100 W
b1000 h
b1000 ^"
b1000 q#
b0 W#
b10011 ]#
b10011 y"
b10011 n"
b10000100 a
b1100010011 ;
b1100010011 C
b0 ,
b0 H
b0 >"
b100 /
b100 N
b100 V"
b111110000000000000011101111 1
b111110000000000000011101111 L
b111110000000000000011101111 U"
b1000 T"
b1000 o#
b1111100 O"
b1111100 p#
b0 8"
b0 l#
b0 I"
b0 m#
b0 N"
0S"
b0 M"
0G"
b0 B"
b0 L"
0C"
b10 !"
17"
b1010010011 ,"
b1010010011 `"
b1010010011 (#
b10000000 -"
b10000000 _"
b10000100 '"
b10000100 y
b10000000 z
b10001000 i
b10001000 U#
b10000100 `
b10000100 V#
b1 >
b110 =
19
#75
09
#80
b10001100 0
b10001100 M
b10001100 2
b10001100 G
b10001100 Y
b10001100 T#
b0 -
b0 P
b0 f
b0 ["
b0 e#
b10001000 a
b101 X#
0"
b0 $
b0 W
b0 h
b0 ^"
b0 q#
b0 .
b0 O
b0 S
b0 d#
b10001100 i
b10001100 U#
b10001000 `
b10001000 V#
b10001000 y
b10000100 z
b1100010011 ,"
b1100010011 `"
b1100010011 (#
b10000100 -"
b10000100 _"
b10001000 '"
1H"
b1010010011 @"
b10011 &"
b10011 `#
b1 ~
b1 ,#
b1 M#
16"
b10000100 <"
b10000000 j
b10000000 6#
b10000000 A"
b10000000 0#
b10 9"
b0 /
b0 N
b0 V"
0W"
b0 1
b0 L
b0 U"
b0 T"
b0 o#
b0 O"
b0 p#
0R"
b1110010011 ;
b1110010011 C
b10 >
b111 =
19
#85
09
#90
b10010000 0
b10010000 M
b10010000 2
b10010000 G
b10010000 Y
b10010000 T#
b101 W#
b110 X#
b10001100 a
b111000010011 ;
b111000010011 C
b10 I"
b10 m#
b10000000 N"
1S"
b1010010011 M"
1G"
b10000100 L"
b1100010011 @"
b10001000 <"
b10000100 j
b10000100 6#
b10000100 A"
b10000100 0#
b1110010011 ,"
b1110010011 `"
b1110010011 (#
b10001000 -"
b10001000 _"
b10001100 '"
b10001100 y
b10001000 z
b10010000 i
b10010000 U#
b10001100 `
b10001100 V#
b1000 =
19
#95
09
#100
b10010100 0
b10010100 M
b10010100 2
b10010100 G
b10010100 Y
b10010100 T#
b101 .
b101 O
b101 S
b101 d#
b10010000 a
b111 X#
b110 W#
1"
b10010100 i
b10010100 U#
b10010000 `
b10010000 V#
b10010000 y
b10001100 z
b111000010011 ,"
b111000010011 `"
b111000010011 (#
b10001100 -"
b10001100 _"
b10010000 '"
b1110010011 @"
b10001100 <"
b10001000 j
b10001000 6#
b10001000 A"
b10001000 0#
b10000100 N"
b1100010011 M"
b10001000 L"
b10000000 /
b10000000 N
b10000000 V"
1W"
b1010010011 1
b1010010011 L
b1010010011 U"
b10000100 T"
b10000100 o#
1R"
b1000010000000100011 ;
b1000010000000100011 C
b1001 =
19
#105
09
#110
0T
b100 k"
b100 o"
b100 '#
b100000000 w
b100000000 c"
b10 t
b10 f"
b10 {"
b10011000 0
b10011000 M
b10011000 2
b10011000 G
b10011000 Y
b10011000 T#
b110 .
b110 O
b110 S
b110 d#
b100000000 V
b100000000 h"
b100000000 i#
b111 W#
b11100 X#
b100011 ]#
b1000 Y#
b1000 f#
1o
b100011 y"
b100011 n"
b10 _
b10 i"
b10 ^
b10 j"
b10010100 a
b1000000001100111 ;
b1000000001100111 C
b10000100 /
b10000100 N
b10000100 V"
b1100010011 1
b1100010011 L
b1100010011 U"
b10001000 T"
b10001000 o#
b10001000 N"
b1110010011 M"
b10001100 L"
b111000010011 @"
b10010000 <"
b10001100 j
b10001100 6#
b10001100 A"
b10001100 0#
b1000010000000100011 ,"
b1000010000000100011 `"
b1000010000000100011 (#
b10010000 -"
b10010000 _"
b10010100 '"
b10010100 y
b10010000 z
b10011000 i
b10011000 U#
b10010100 `
b10010100 V#
b11 >
b1010 =
19
#115
09
